module gitlab.com/orballo_project/opportunistic-ble-mesh/libp2p

go 1.17

require (
	github.com/ipfs/go-log/v2 v2.4.0
	github.com/jacobsa/go-serial v0.0.0-20180131005756-15cf729a72d4
	github.com/libp2p/go-libp2p v0.17.0
	github.com/libp2p/go-libp2p-core v0.13.0
	github.com/libp2p/go-libp2p-discovery v0.6.0
	github.com/libp2p/go-libp2p-host v0.1.0
	github.com/libp2p/go-libp2p-kad-dht v0.15.0
	github.com/libp2p/go-libp2p-pubsub v0.6.1
	github.com/libp2p/go-libp2p-pubsub-router v0.5.0
	github.com/libp2p/go-libp2p-record v0.1.3
	github.com/libp2p/go-libp2p-swarm v0.9.0
	github.com/libp2p/go-libp2p-transport-upgrader v0.6.0
	github.com/libp2p/go-tcp-transport v0.4.0
	github.com/multiformats/go-multiaddr v0.5.0
	github.com/pkg/term v1.1.0
	go.uber.org/zap v1.20.0
)

require (
	github.com/beorn7/perks v1.0.1 // indirect
	github.com/btcsuite/btcd v0.22.0-beta // indirect
	github.com/cespare/xxhash/v2 v2.1.1 // indirect
	github.com/cheekybits/genny v1.0.0 // indirect
	github.com/coreos/go-semver v0.3.0 // indirect
	github.com/davidlazar/go-crypto v0.0.0-20200604182044-b73af7476f6c // indirect
	github.com/flynn/noise v1.0.0 // indirect
	github.com/francoispqt/gojay v1.2.13 // indirect
	github.com/fsnotify/fsnotify v1.4.9 // indirect
	github.com/go-task/slim-sprig v0.0.0-20210107165309-348f09dbbbc0 // indirect
	github.com/gogo/protobuf v1.3.2 // indirect
	github.com/golang/protobuf v1.5.2 // indirect
	github.com/google/gopacket v1.1.19 // indirect
	github.com/google/uuid v1.3.0 // indirect
	github.com/gorilla/websocket v1.4.2 // indirect
	github.com/hashicorp/errwrap v1.0.0 // indirect
	github.com/hashicorp/go-multierror v1.1.1 // indirect
	github.com/hashicorp/golang-lru v0.5.4 // indirect
	github.com/huin/goupnp v1.0.2 // indirect
	github.com/ipfs/go-cid v0.0.7 // indirect
	github.com/ipfs/go-datastore v0.5.1 // indirect
	github.com/ipfs/go-ipfs-ds-help v0.1.1 // indirect
	github.com/ipfs/go-ipfs-util v0.0.2 // indirect
	github.com/ipfs/go-ipns v0.1.2 // indirect
	github.com/ipfs/go-log v1.0.5 // indirect
	github.com/ipld/go-ipld-prime v0.9.0 // indirect
	github.com/jackpal/go-nat-pmp v1.0.2 // indirect
	github.com/jbenet/go-temp-err-catcher v0.1.0 // indirect
	github.com/jbenet/goprocess v0.1.4 // indirect
	github.com/klauspost/compress v1.11.7 // indirect
	github.com/klauspost/cpuid/v2 v2.0.9 // indirect
	github.com/koron/go-ssdp v0.0.2 // indirect
	github.com/libp2p/go-addr-util v0.1.0 // indirect
	github.com/libp2p/go-buffer-pool v0.0.2 // indirect
	github.com/libp2p/go-cidranger v1.1.0 // indirect
	github.com/libp2p/go-conn-security-multistream v0.3.0 // indirect
	github.com/libp2p/go-eventbus v0.2.1 // indirect
	github.com/libp2p/go-flow-metrics v0.0.3 // indirect
	github.com/libp2p/go-libp2p-asn-util v0.1.0 // indirect
	github.com/libp2p/go-libp2p-autonat v0.7.0 // indirect
	github.com/libp2p/go-libp2p-blankhost v0.3.0 // indirect
	github.com/libp2p/go-libp2p-kbucket v0.4.7 // indirect
	github.com/libp2p/go-libp2p-mplex v0.4.1 // indirect
	github.com/libp2p/go-libp2p-nat v0.1.0 // indirect
	github.com/libp2p/go-libp2p-noise v0.3.0 // indirect
	github.com/libp2p/go-libp2p-peerstore v0.6.0 // indirect
	github.com/libp2p/go-libp2p-pnet v0.2.0 // indirect
	github.com/libp2p/go-libp2p-quic-transport v0.15.2 // indirect
	github.com/libp2p/go-libp2p-tls v0.3.1 // indirect
	github.com/libp2p/go-libp2p-yamux v0.7.0 // indirect
	github.com/libp2p/go-maddr-filter v0.1.0 // indirect
	github.com/libp2p/go-mplex v0.3.0 // indirect
	github.com/libp2p/go-msgio v0.1.0 // indirect
	github.com/libp2p/go-nat v0.1.0 // indirect
	github.com/libp2p/go-netroute v0.1.6 // indirect
	github.com/libp2p/go-openssl v0.0.7 // indirect
	github.com/libp2p/go-reuseport v0.1.0 // indirect
	github.com/libp2p/go-reuseport-transport v0.1.0 // indirect
	github.com/libp2p/go-sockaddr v0.1.1 // indirect
	github.com/libp2p/go-stream-muxer-multistream v0.3.0 // indirect
	github.com/libp2p/go-ws-transport v0.5.0 // indirect
	github.com/libp2p/go-yamux/v2 v2.3.0 // indirect
	github.com/lucas-clemente/quic-go v0.26.0 // indirect
	github.com/marten-seemann/qtls-go1-16 v0.1.5 // indirect
	github.com/marten-seemann/qtls-go1-17 v0.1.1 // indirect
	github.com/marten-seemann/qtls-go1-18 v0.1.1 // indirect
	github.com/marten-seemann/tcp v0.0.0-20210406111302-dfbc87cc63fd // indirect
	github.com/mattn/go-isatty v0.0.16 // indirect
	github.com/matttproud/golang_protobuf_extensions v1.0.1 // indirect
	github.com/miekg/dns v1.1.43 // indirect
	github.com/mikioh/tcpinfo v0.0.0-20190314235526-30a79bb1804b // indirect
	github.com/mikioh/tcpopt v0.0.0-20190314235656-172688c1accc // indirect
	github.com/minio/blake2b-simd v0.0.0-20160723061019-3f5f724cb5b1 // indirect
	github.com/minio/sha256-simd v1.0.0 // indirect
	github.com/mr-tron/base58 v1.2.0 // indirect
	github.com/multiformats/go-base32 v0.0.3 // indirect
	github.com/multiformats/go-base36 v0.1.0 // indirect
	github.com/multiformats/go-multiaddr-dns v0.3.1 // indirect
	github.com/multiformats/go-multiaddr-fmt v0.1.0 // indirect
	github.com/multiformats/go-multibase v0.0.3 // indirect
	github.com/multiformats/go-multicodec v0.2.0 // indirect
	github.com/multiformats/go-multihash v0.0.15 // indirect
	github.com/multiformats/go-multistream v0.2.2 // indirect
	github.com/multiformats/go-varint v0.0.6 // indirect
	github.com/nxadm/tail v1.4.8 // indirect
	github.com/onsi/ginkgo v1.16.4 // indirect
	github.com/opentracing/opentracing-go v1.2.0 // indirect
	github.com/pkg/errors v0.9.1 // indirect
	github.com/polydawn/refmt v0.0.0-20190807091052-3d65705ee9f1 // indirect
	github.com/prometheus/client_golang v1.11.0 // indirect
	github.com/prometheus/client_model v0.2.0 // indirect
	github.com/prometheus/common v0.30.0 // indirect
	github.com/prometheus/procfs v0.7.3 // indirect
	github.com/spacemonkeygo/spacelog v0.0.0-20180420211403-2296661a0572 // indirect
	github.com/whyrusleeping/go-keyspace v0.0.0-20160322163242-5b898ac5add1 // indirect
	github.com/whyrusleeping/multiaddr-filter v0.0.0-20160516205228-e903e4adabd7 // indirect
	github.com/whyrusleeping/timecache v0.0.0-20160911033111-cfcb2f1abfee // indirect
	go.opencensus.io v0.23.0 // indirect
	go.uber.org/atomic v1.9.0 // indirect
	go.uber.org/multierr v1.7.0 // indirect
	golang.org/x/crypto v0.0.0-20210921155107-089bfa567519 // indirect
	golang.org/x/mod v0.6.0-dev.0.20220419223038-86c51ed26bb4 // indirect
	golang.org/x/net v0.0.0-20220722155237-a158d28d115b // indirect
	golang.org/x/sync v0.0.0-20220722155255-886fb9371eb4 // indirect
	golang.org/x/sys v0.0.0-20220829200755-d48e67d00261 // indirect
	golang.org/x/tools v0.1.12 // indirect
	google.golang.org/protobuf v1.27.1 // indirect
	gopkg.in/tomb.v1 v1.0.0-20141024135613-dd632973f1e7 // indirect
)

replace gitlab.com/orballo_project/opportunistic-ble-mesh/libp2p/util => ../util
